<svg id="Layer_1" data-name="Layer 1" xmlns="http://www.w3.org/2000/svg" viewBox="0 0 239.21775 58.3607">
  <g>
    <path d="M61.53353,23.1h12.1v1.1h-3.7V42.8c0,4.2,3.4,5.2,6,5,2.1-.2,5.9-.8,5.9-5.7V24.2h-3.5V23.1h8.9v1.1h-3.3V41.8c0,6.2-4.2,7.8-9.2,7.9-6.4.1-10-1.2-10-7.2V24.2h-3.2Zm28.8,17.4h1.2c.2,3.7,2.9,8,7.3,8,2.6,0,5.2-1.2,5.2-4.3,0-6.5-13.2-4.4-13.2-13.6,0-5.6,4.2-7.9,7.9-7.9a17.60718,17.60718,0,0,1,6.9,1.6v6.3h-1c-.6-3.6-3.1-6.6-6.5-6.6a3.731,3.731,0,0,0-3.8,4c0,5.8,13,3.6,13,13.8,0,4.7-3.8,8-8.7,8a21.40275,21.40275,0,0,1-8.1-1.7V40.5Zm17,7.3a2,2,0,1,0,2-2A2.00588,2.00588,0,0,0,107.33353,47.8Zm-22.8,0a2,2,0,1,0,2-2A2.00589,2.00589,0,0,0,84.53353,47.8Z" style="fill: #ee3040"/>
    <path d="M48.43353,20.8a106.7013,106.7013,0,0,0-20.8-1.8,48.44552,48.44552,0,0,1,9.7-13l-.9-.7s-8.7,5.3-15,19.4l2.8,1c.7-1.5,1.5-3,2.3-4.5a120.97058,120.97058,0,0,1,22.2,2c-8.2,1.4-23.2,5.2-31.9,24.2a68.76257,68.76257,0,0,1,5.7-17.7c.9.4,2.8,1.2,2.8,1.2l2.2-1.9a64.34032,64.34032,0,0,0-19.7-5.5,63.68675,63.68675,0,0,1,13.1-2.1l1.2-2.1c-13,.4-23.3,4.2-21.3,4.8,2.3.6,8.9,1,18.4,4.2-5.9,12.9-6.9,27.8-4.7,29.1,2.2,1.2,7.1-15.7,17-23.6a67.26871,67.26871,0,0,1,15.9,11.4,3.59154,3.59154,0,0,1,1-.7,45.6,45.6,0,0,0-14.4-12.5c3.7-2.6,10.6-5.2,17.3-6.7C53.93353,24.8,59.73353,23,48.43353,20.8Z" style="fill: #0065a4"/>
    <circle cx="50.13353" cy="47.8" r="2" style="fill: #ee3040"/>
    <circle cx="39.63353" cy="2.9" r="2" style="fill: #ee3040"/>
    <path d="M138.13352,32.2h-1c-.3-4.5-3.7-8.5-7.6-8.5-6.6,0-7.3,7.4-7.3,12.4,0,4.6.4,12.5,7.1,12.5,4,0,7.5-4,8-8.4h1v7.4a24.76289,24.76289,0,0,1-9.1,2.1c-7.7,0-12.6-5.6-12.6-13.6,0-7.9,4.9-13.5,12.6-13.5a22.64672,22.64672,0,0,1,8.9,2.1v7.5Zm7,7.2V41c0,3.3.5,7.2,4.4,7.2,2.8,0,4.6-1.8,5.7-4.4l.9.4c-1.3,3.7-4,5.5-7.5,5.5-5.2,0-8.7-3.7-8.7-9.4,0-5.4,3.6-9.4,8.7-9.4,4.4,0,7.8,3.1,7.8,8.5Zm6-1.1V36.6c0-2.1-.5-4.6-2.8-4.6-3.1,0-3.2,4-3.3,6.3Zm22,9.9V23h-7.3v1.2h2.4v24h-4.7V23h-7.3v1.2h2.4v24h-2.4v1.1h19.2V48.2Zm32.7,1.1V48.2h-2.4V23h-7.3v1.2h2.4v24h-4.7V31.3h-7.3v1.2h2.4v9.6c0,3.9-1.6,5.9-3.7,5.9-1.4,0-2.6-.4-2.6-3.2V31.3h-7.3v1.2h2.4V43.8c0,4.7,2.4,6.1,5.8,6.1a5.95412,5.95412,0,0,0,5.3-3h.1v2.6l16.9-.2Zm27.7,0V48.2h-2.4V40.5c0-2.9.8-7.8,2.7-7.8.5,0,.6.3.6.7,0,.6-.1.7-.1,1.7,0,1.2.7,1.9,2.1,1.9,1.5,0,2.2-1,2.2-2.5,0-2.1-1.1-3.7-3.2-3.7a4.4722,4.4722,0,0,0-4.2,3.2h-.1V31.2h-7.3v1.2h2.4V48.2h-2.3c-2,0-2.4-.7-2.4-3.1V36.4c0-5-3.4-5.5-7.9-5.5-2.4,0-6.4.8-6.4,4,0,1.6.8,2,1.9,2,3.8,0,0-4.9,4.6-4.9,2.5,0,3,1.2,3,2.9v2.3a26.68633,26.68633,0,0,1-3.4,1.1c-4.1.9-7.2,1.2-7.2,5.6,0,3.6,1.8,5.8,5.1,5.8,2.2,0,4.7-.6,5.4-2.9h.1c.3,2.2,1.3,2.4,3.4,2.4l13.4.1Zm-16.8-7.9c0,2.1,0,6.6-3.2,6.6-1.9,0-2.5-1.7-2.5-3.5,0-3.3,1-4.4,2.8-5.1l2.9-1.1v3.1Zm17.7,6.3a1.50313,1.50313,0,1,0,1.5-1.6A1.62374,1.62374,0,0,0,234.43353,47.7Zm.3,0a1.13495,1.13495,0,0,1,1.1-1.2,1.07836,1.07836,0,0,1,1.1,1.2,1.13495,1.13495,0,0,1-1.1,1.2C235.23353,49,234.73353,48.4,234.73353,47.7Zm.5.9h.7v-.1c-.2,0-.2,0-.2-.2v-.5h.1c.2.3.3.7.5.7h.4v-.1c-.1,0-.2-.2-.3-.3l-.3-.4a.53587.53587,0,0,0,.3-.4c0-.3-.2-.4-.5-.4h-.7V47c.2,0,.2,0,.2.2v1.1c-.1.1-.1.2-.2.3Zm.5-1.6h.1c.1,0,.2.1.2.3s0,.4-.2.4h-.1Z" style="fill: #0065a4"/>
  </g>
</svg>
