<svg id="logo" xmlns="http://www.w3.org/2000/svg" viewBox="0 0 283.12805 42.36573">
  <title>galaxylogos</title>
  <g>
    <path d="M120.67212,35.08617l2.45823-1.9427a3.65142,3.65142,0,0,0,3.17181,1.96272,1.99434,1.99434,0,0,0,2.20082-1.943c0-1.22912-1.46721-1.60557-3.01379-2.08142-1.9427-.61455-4.10348-1.36818-4.10348-4.12385,0-2.31952,2.02207-4.14316,4.79776-4.14316a6.18665,6.18665,0,0,1,4.8571,2.10143l-2.22012,1.68493a2.96642,2.96642,0,0,0-2.617-1.38748c-1.30848,0-2.02207.71358-2.02207,1.64525,0,1.14974,1.38713,1.52656,2.95374,2.04208,1.96272.63422,4.18284,1.50654,4.18284,4.28224,0,2.27983-1.824,4.50031-4.99582,4.50031A7.12012,7.12012,0,0,1,120.67212,35.08617Z" style="fill: #fff"/>
    <path d="M132.48634,34.94746c0-2.47825,2.00276-3.96512,3.80674-5.17422,1.42718-.99137,2.73566-1.804,2.73566-2.9144a1.755,1.755,0,0,0-1.982-1.72462,2.782,2.782,0,0,0-2.53759,2.06175l-2.31951-1.16977a5.12232,5.12232,0,0,1,4.87641-3.21149c2.93442,0,4.69837,1.784,4.69837,4.06415,0,2.29949-1.88335,3.56829-3.608,4.73805-1.50654,1.011-2.95374,1.923-2.97376,3.29087H141.705v2.57727h-9.2187Z" style="fill: #fff"/>
    <path d="M143.31025,32.96508V27.65179a4.91765,4.91765,0,0,1,9.83362-.01966v5.333c0,2.83468-1.824,4.71839-4.91716,4.71839C145.05489,37.68347,143.31025,35.74041,143.31025,32.96508Zm7.1373-.09939V27.73116a2.058,2.058,0,0,0-2.20082-2.26017,2.11645,2.11645,0,0,0-2.24015,2.26017V32.846a2.02,2.02,0,0,0,2.20082,2.16078A2.06628,2.06628,0,0,0,150.44755,32.86569Z" style="fill: #fff"/>
    <path d="M154.76839,29.119H157.326V26.60107h2.24015V29.119h2.53759v2.27983h-2.53759v2.5376H157.326v-2.5376h-2.55761Z" style="fill: #fff"/>
  </g>
  <g>
    <path d="M5.06906,4.02386a1.72225,1.72225,0,0,1-.014-.72955,1.145,1.145,0,0,1,1.27149-.93639A1.18687,1.18687,0,0,1,7.61737,3.6197v.85982h3.46509V3.50373C11.08246.48147,8.358,0,6.39389,0,3.92608,0,1.91.819,1.541,3.08743a4.80343,4.80343,0,0,0,.02756,1.8725c.60173,2.84041,5.53908,3.66156,6.25716,5.45854a1.79418,1.79418,0,0,1,.0272,1.02591,1.20184,1.20184,0,0,1-1.35665.93823,1.238,1.238,0,0,1-1.38711-1.26468L5.10451,9.7813H1.37671v1.06208c0,3.106,2.43948,4.03992,5.0501,4.03992,2.51,0,4.57116-.85517,4.90729-3.1801a6.91156,6.91156,0,0,0-.01433-2.27412C10.73306,6.51348,5.46461,5.65007,5.06906,4.02386Zm45.17935.034a1.85229,1.85229,0,0,1-.01181-.718,1.13894,1.13894,0,0,1,1.25893-.93,1.17263,1.17263,0,0,1,1.27255,1.25105v.84944h3.425V3.542c0-2.99326-2.68363-3.46326-4.62665-3.46326-2.44666,0-4.44518.80649-4.8103,3.05877a4.63647,4.63647,0,0,0,.03332,1.85138c.59491,2.80819,5.484,3.62293,6.19341,5.39876a1.874,1.874,0,0,1,.02544,1.018c-.10634.46215-.417.92712-1.3388.92712a1.22953,1.22953,0,0,1-1.38458-1.24606l-.00143-1.333h-3.6863v1.05956c0,3.071,2.40517,3.99736,4.99607,3.99736,2.481,0,4.53036-.84765,4.859-3.14612a6.76916,6.76916,0,0,0-.02434-2.25228C55.85335,6.53207,50.64289,5.66583,50.24841,4.05784ZM81.793,11.62729,78.5216.44247H73.36622V14.1896h3.41033l-.198-11.54247L80.092,14.1896h4.94416V.44247h-3.4325ZM16.24927.44247l-2.57338,13.8921h3.75283l1.9391-12.86048,1.89255,12.86048H24.9871L22.42446.44247Zm20.98331,0L35.48,11.30157,33.72849.44247H28.0609l-.30032,13.8921h3.4722l.0938-12.86048,2.38868,12.86048h3.52267l2.3912-12.86048.09414,12.86048h3.48118L42.89339.44247Zm32.28166,0h-3.5134v10.277a2.462,2.462,0,0,1-.03079.528,1.38093,1.38093,0,0,1-2.65967,0,2.23975,2.23975,0,0,1-.03541-.528V.44247H59.76263v9.95812c-.00429.25666.01576.78105.03116.9185.24233,2.59486,2.28736,3.43749,4.841,3.43749,2.55872,0,4.60269-.84263,4.84967-3.43749a7.248,7.248,0,0,0,.02973-.9185ZM93.63758,6.53672V8.5628h1.424v2.01032a2.55083,2.55083,0,0,1-.03614.52835,1.50061,1.50061,0,0,1-2.83862,0,3.41257,3.41257,0,0,1-.03651-.52835V4.224a2.84763,2.84763,0,0,1,.063-.65649,1.4563,1.4563,0,0,1,2.76956,0,3.68635,3.68635,0,0,1,.0426.53619v.77071h3.4987V4.41868a8.27727,8.27727,0,0,0-.02683-.91961C98.23415.89347,96.08747.06873,93.62505.06873c-2.46635,0-4.5701.83226-4.8765,3.43034-.02757.23771-.06979.66511-.06979.91961v5.84049a7.97476,7.97476,0,0,0,.05509.916c.2284,2.53438,2.42485,3.43251,4.88152,3.43251,2.4721,0,4.65316-.89813,4.88548-3.43251.04116-.4646.04545-.66184.0508-.916V6.53672Z" style="fill: #fff"/>
    <g>
      <g>
        <g>
          <path d="M25.47967,27.27848a4.80427,4.80427,0,0,0-3.73212-1.62694,5.74615,5.74615,0,0,0-5.7578,6.05489,5.81652,5.81652,0,0,0,5.7188,6.03451,4.76894,4.76894,0,0,0,3.77112-1.76689v1.52958h2.67968V25.88958H25.47967Zm-3.33478,8.00183a3.59584,3.59584,0,1,1,3.4733-3.61431A3.51855,3.51855,0,0,1,22.14489,35.28031Z" style="fill: #fff"/>
          <path d="M43.58427,27.27848a4.808,4.808,0,0,0-3.73213-1.62694,5.74571,5.74571,0,0,0-5.7567,6.05489,5.8151,5.8151,0,0,0,5.717,6.03451,4.76883,4.76883,0,0,0,3.77186-1.76689v1.52958h2.67931V25.88958H43.58427Zm-3.33621,8.00183A3.5958,3.5958,0,1,1,43.72242,31.666,3.5179,3.5179,0,0,1,40.24806,35.28031Z" style="fill: #fff"/>
          <polygon points="65.261 33.712 62.026 25.89 59.166 25.89 63.933 36.888 61.846 41.89 64.607 41.89 71.137 25.89 68.318 25.89 65.261 33.712" style="fill: #fff"/>
          <polygon points="58.869 25.89 55.694 25.89 53.073 29.563 50.432 25.89 47.157 25.89 51.367 31.588 46.998 37.504 50.273 37.504 53.033 33.632 55.873 37.504 59.148 37.504 54.7 31.607 58.869 25.89" style="fill: #fff"/>
          <rect x="30.00608" y="22.81255" width="2.6983" height="14.69108" style="fill: #fff"/>
          <path d="M7.30276,31.97419H11.928A4.1,4.1,0,0,1,7.7391,35.1103a4.82369,4.82369,0,0,1-.09878-9.64669,4.48093,4.48093,0,0,1,4.18815,2.52074l2.38185-1.429a7.39212,7.39212,0,0,0-6.59042-3.712,7.44424,7.44424,0,1,0,.1192,14.888,6.98243,6.98243,0,0,0,7.08622-7.26591V29.394H7.30276Z" style="fill: #fff"/>
        </g>
        <path d="M81.23317,28.9376c-1.56822-.51618-2.95746-.89347-2.95746-2.04466,0-.93284.71449-1.64732,2.02462-1.64732a2.96974,2.96974,0,0,1,2.62026,1.38923l2.22295-1.68706a6.19408,6.19408,0,0,0-4.86326-2.10412c-2.77887,0-4.80349,1.826-4.80349,4.14842,0,2.75919,2.16354,3.51377,4.10869,4.1291,1.54853.47645,3.01723.85337,3.01723,2.084a1.99674,1.99674,0,0,1-2.20323,1.94551,3.6557,3.6557,0,0,1-3.17584-1.96519l-2.4617,1.94514a7.12961,7.12961,0,0,0,5.65722,2.60062c3.17618,0,5.00252-2.22332,5.00252-4.506C85.42168,30.44607,83.19836,29.57265,81.23317,28.9376Z" style="fill: #fff"/>
      </g>
      <g>
        <path d="M86.59148,34.9918c0-2.48139,2.00494-3.97015,3.81121-5.18077,1.42934-.99263,2.73948-1.80628,2.73948-2.9181a1.75755,1.75755,0,0,0-1.98489-1.72681,2.78549,2.78549,0,0,0-2.54081,2.06436L86.294,26.05924A5.1293,5.1293,0,0,1,91.177,22.84367c2.93779,0,4.70433,1.78623,4.70433,4.0693,0,2.30241-1.88574,3.57281-3.61254,4.74406-1.50881,1.01231-2.95784,1.92547-2.97752,3.295h6.53064V37.5326H86.59148Z" style="fill: #fff"/>
        <path d="M97.42911,33.0069v-5.32a4.9237,4.9237,0,0,1,9.84572-.01968v5.3397c0,2.83827-1.82632,4.72437-4.923,4.72437C99.176,37.73127,97.42911,35.78575,97.42911,33.0069Zm7.146-.09951v-5.141a2.06056,2.06056,0,0,0-2.20325-2.263,2.11941,2.11941,0,0,0-2.24334,2.263V32.8877a2.0225,2.0225,0,0,0,2.2036,2.16352A2.0689,2.0689,0,0,0,104.57509,32.90739Z" style="fill: #fff"/>
      </g>
    </g>
  </g>
  <g>
    <path d="M178.94664,28.885c-1.55726-.51257-2.93677-.88723-2.93677-2.03037,0-.92632.70948-1.6358,2.01045-1.6358a2.949,2.949,0,0,1,2.60194,1.37952l2.20741-1.67526a6.15074,6.15074,0,0,0-4.82926-2.08941c-2.75943,0-4.76989,1.81321-4.76989,4.11941,0,2.73989,2.14841,3.4892,4.07995,4.10023,1.53771.47311,2.99614.8474,2.99614,2.06945a1.98278,1.98278,0,0,1-2.18783,1.93191,3.63015,3.63015,0,0,1-3.15364-1.95145l-2.44447,1.93154a7.07973,7.07973,0,0,0,5.61766,2.58243c3.154,0,4.96754-2.20777,4.96754-4.47452C183.10587,30.38291,180.89809,29.5156,178.94664,28.885Z" style="fill: #fff"/>
    <g>
      <path d="M184.26749,34.89684c0-2.464,1.99092-3.94238,3.78456-5.14454,1.41934-.98568,2.72032-1.79364,2.72032-2.89769a1.74526,1.74526,0,0,0-1.971-1.71473,2.766,2.766,0,0,0-2.523,2.04992l-2.30621-1.16305a5.09343,5.09343,0,0,1,4.8488-3.19308c2.91725,0,4.67143,1.77373,4.67143,4.04084,0,2.28631-1.87255,3.54783-3.58728,4.71089-1.49825,1.00523-2.93715,1.912-2.9567,3.272h6.485v2.5625h-9.16584Z" style="fill: #fff"/>
      <path d="M195.02933,32.92583V27.643a4.88927,4.88927,0,0,1,9.77687-.01955v5.30237c0,2.81843-1.81354,4.69133-4.88861,4.69133C196.764,37.61716,195.02933,35.68525,195.02933,32.92583Zm7.096-.09882V27.72193a2.04615,2.04615,0,0,0-2.18784-2.24721,2.10459,2.10459,0,0,0-2.22766,2.24721v5.08553a2.00837,2.00837,0,0,0,2.1882,2.14839A2.05442,2.05442,0,0,0,202.12534,32.827Z" style="fill: #fff"/>
    </g>
    <g>
      <path d="M209.317,32.45272V23.03059h2.68051v9.57959a2.458,2.458,0,0,0,2.48359,2.523,2.50287,2.50287,0,0,0,2.523-2.523V23.03059H219.685v9.42213a4.80621,4.80621,0,0,1-5.184,5.16444C211.50482,37.61716,209.317,35.84307,209.317,32.45272Z" style="fill: #fff"/>
      <path d="M221.26107,22.83367h2.68051V37.41989h-2.68051Z" style="fill: #fff"/>
      <path d="M225.06447,25.88883h1.971V24.13464l2.68086-1.83345v3.58764H232.062V28.274h-2.34567v4.31668c0,2.01047.27584,2.32576,2.34567,2.32576v2.5035h-.37465c-3.56774,0-4.65188-1.14316-4.65188-4.80971V28.274h-1.971Z" style="fill: #fff"/>
      <path d="M233.34273,25.88883h2.64106v1.71473a2.94634,2.94634,0,0,1,2.9567-1.71473,4.062,4.062,0,0,1,2.03037.49266l-1.00523,2.523a2.70025,2.70025,0,0,0-1.59672-.4532c-1.53736,0-2.36522.82786-2.36522,2.81878v6.14978h-2.661Z" style="fill: #fff"/>
      <path d="M241.069,31.66431a5.70517,5.70517,0,0,1,5.71612-6.01222,4.8336,4.8336,0,0,1,3.706,1.61663V25.88883h2.661V37.41989h-2.661V35.922a4.78305,4.78305,0,0,1-3.7451,1.73427A5.77434,5.77434,0,0,1,241.069,31.66431Zm9.56-.03946a3.47121,3.47121,0,1,0-3.44936,3.58729A3.463,3.463,0,0,0,250.629,31.62485Z" style="fill: #fff"/>
      <path d="M257.66282,34.85739l2.48359-1.4389a2.61313,2.61313,0,0,0,2.44413,1.73464,2.32786,2.32786,0,0,0-.05937-4.65188A2.55332,2.55332,0,0,0,260.225,31.9597l-2.38477-1.22207,1.02479-7.707h8.00278v2.50349h-5.87394l-.41376,3.19308a4.15632,4.15632,0,0,1,2.24685-.67,4.48982,4.48982,0,0,1,4.67179,4.82925,4.63955,4.63955,0,0,1-4.92807,4.73079A5.29823,5.29823,0,0,1,257.66282,34.85739Z" style="fill: #fff"/>
      <path d="M268.3454,30.22542a7.23828,7.23828,0,0,1,7.35229-7.39175,7.34083,7.34083,0,0,1,6.544,3.68574l-2.36521,1.41934a4.4503,4.4503,0,0,0-4.15922-2.50313,4.79014,4.79014,0,0,0,.09882,9.57959,4.07208,4.07208,0,0,0,4.15886-3.11452H275.3824v-2.5625h7.47031v1.0646a6.93381,6.93381,0,0,1-7.03665,7.21437A7.26491,7.26491,0,0,1,268.3454,30.22542Z" style="fill: #fff"/>
    </g>
  </g>
  <rect x="113.29576" y="21.18232" width="1.5574" height="18.54117" style="fill: #fff"/>
  <rect x="167.03351" y="21.18232" width="1.5574" height="18.54117" style="fill: #fff"/>
</svg>
