<svg id="Layer_1" data-name="Layer 1" xmlns="http://www.w3.org/2000/svg" viewBox="0 0 192.05084 43.29874">
  <path d="M1.09159,14.99682H12.07622V4.23693a2.108,2.108,0,0,1,2.027-2.34442h174.829a2.11722,2.11722,0,0,1,2.027,2.34442v35.1188a1.861,1.861,0,0,1-2.027,2.05049H14.10323a1.868,1.868,0,0,1-2.027-2.05049V25.48521Z" style="fill: none;stroke: #fff;stroke-miterlimit: 10;stroke-width: 2px"/>
</svg>
